{
  "login": {
    "required": "Укажите никнейм",
    "minLength": "Минимальная длина никнейма - 3 символа",
    "maxLength": "Максимальная длина никнейма - 20 символов",
    "nonWordCharacters": "Допустимые символы в никнейме: латинские буквы, точка, дефис, нижнее подчеркивание"
  },
  "description": {
    "maxLength": "Максимальная длина описания - 200 символов"
  },
  "gender": {
    "required": "Укажите ориентацию"
  },
  "city": {
    "required": "Выберите город"
  },
  "birthday": {
    "required": "Укажите дату рождения"
  },
  "purposeGender": {
    "required": "Укажите кого вы ищете"
  },
  "purposeDating": {
    "required": "Укажите цель знакомства"
  }
}
